<svg width="101" height="11" viewBox="0 0 101 11" fill="none" xmlns="http://www.w3.org/2000/svg">
<path d="M6.99249 7.82222L7.24849 7.63733C7.57086 7.4477 7.79842 7.35289 7.93116 7.35289C8.22509 7.35289 8.54272 7.61837 8.88405 8.14933C9.09264 8.48119 9.19694 8.74667 9.19694 8.94578C9.19694 9.14489 9.13057 9.31082 8.99783 9.44356C8.87457 9.5763 8.7276 9.69482 8.55694 9.79911C8.38627 9.90341 8.22034 10.003 8.05916 10.0978C7.90746 10.1926 7.58983 10.3159 7.10627 10.4676C6.62271 10.6193 6.15338 10.6951 5.69827 10.6951C5.25264 10.6951 4.79753 10.6382 4.33294 10.5244C3.87783 10.4012 3.40375 10.2021 2.91071 9.92711C2.42716 9.64267 1.99101 9.30133 1.60227 8.90311C1.21353 8.49541 0.891159 7.97867 0.635159 7.35289C0.38864 6.71763 0.265381 6.03022 0.265381 5.29067C0.265381 4.55111 0.38864 3.88267 0.635159 3.28533C0.881677 2.67852 1.19457 2.18074 1.57383 1.792C1.96257 1.39378 2.40346 1.06193 2.89649 0.796444C3.82568 0.284445 4.7596 0.0284449 5.69827 0.0284449C6.1439 0.0284449 6.59427 0.099556 7.04938 0.241778C7.51397 0.374519 7.86479 0.512 8.10183 0.654222L8.44316 0.853333C8.61383 0.95763 8.74657 1.04296 8.84138 1.10933C9.0879 1.30844 9.21116 1.536 9.21116 1.792C9.21116 2.03852 9.1116 2.29926 8.91249 2.57422C8.54272 3.08622 8.21086 3.34222 7.91694 3.34222C7.74627 3.34222 7.50449 3.23793 7.1916 3.02933C6.79338 2.70696 6.26242 2.54578 5.59871 2.54578C4.98242 2.54578 4.3756 2.75911 3.77827 3.18578C3.49383 3.39437 3.25679 3.6883 3.06716 4.06756C2.87753 4.44682 2.78271 4.87822 2.78271 5.36178C2.78271 5.83585 2.87753 6.26252 3.06716 6.64178C3.25679 7.02104 3.49857 7.3197 3.79249 7.53778C4.37086 7.95496 4.97294 8.16356 5.59871 8.16356C5.89264 8.16356 6.1676 8.12563 6.4236 8.04978C6.68909 7.97393 6.87871 7.89807 6.99249 7.82222Z" fill="url(#paint0_linear_726_108144)"/>
<path d="M15.9128 0C17.3161 0 18.5345 0.507259 19.5679 1.52178C20.6014 2.5363 21.1182 3.79733 21.1182 5.30489C21.1182 6.80296 20.6251 8.08296 19.639 9.14489C18.653 10.1973 17.4393 10.7236 15.9982 10.7236C14.557 10.7236 13.3291 10.2021 12.3146 9.15911C11.3096 8.11615 10.807 6.87407 10.807 5.43289C10.807 4.64593 10.9493 3.91111 11.2337 3.22844C11.5182 2.5363 11.8974 1.95793 12.3715 1.49333C12.8456 1.02874 13.3908 0.663704 14.007 0.398222C14.6233 0.132741 15.2586 0 15.9128 0ZM13.3244 5.36178C13.3244 6.20563 13.5946 6.89304 14.135 7.424C14.685 7.94548 15.2965 8.20622 15.9697 8.20622C16.6429 8.20622 17.2497 7.95022 17.7902 7.43822C18.3306 6.92622 18.6008 6.23882 18.6008 5.376C18.6008 4.51319 18.3259 3.82104 17.7759 3.29956C17.2355 2.77807 16.6287 2.51733 15.9555 2.51733C15.2823 2.51733 14.6755 2.78282 14.135 3.31378C13.5946 3.83526 13.3244 4.51793 13.3244 5.36178Z" fill="url(#paint1_linear_726_108144)"/>
<path d="M25.4544 8.448H29.3228C29.6357 8.448 29.8633 8.48593 30.0055 8.56178C30.1477 8.62815 30.2425 8.73719 30.2899 8.88889C30.3373 9.04059 30.361 9.24445 30.361 9.50045C30.361 9.74696 30.3373 9.94608 30.2899 10.0978C30.2425 10.2495 30.1619 10.3538 30.0482 10.4107C29.868 10.5055 29.6215 10.5529 29.3086 10.5529H24.1886C23.5249 10.5529 23.1362 10.3727 23.0224 10.0124C22.9655 9.86074 22.937 9.61896 22.937 9.28711V1.37956C22.937 1.16148 22.9418 1.0003 22.9513 0.896C22.9702 0.782222 23.0176 0.654222 23.0935 0.512C23.2262 0.256 23.596 0.128 24.2028 0.128C24.8665 0.128 25.26 0.303407 25.3833 0.654222C25.4307 0.815408 25.4544 1.06193 25.4544 1.39378V8.448Z" fill="url(#paint2_linear_726_108144)"/>
<path d="M34.6905 8.448H38.5589C38.8718 8.448 39.0994 8.48593 39.2416 8.56178C39.3838 8.62815 39.4786 8.73719 39.5261 8.88889C39.5735 9.04059 39.5972 9.24445 39.5972 9.50045C39.5972 9.74696 39.5735 9.94608 39.5261 10.0978C39.4786 10.2495 39.398 10.3538 39.2843 10.4107C39.1041 10.5055 38.8576 10.5529 38.5447 10.5529H33.4247C32.761 10.5529 32.3723 10.3727 32.2585 10.0124C32.2016 9.86074 32.1732 9.61896 32.1732 9.28711V1.37956C32.1732 1.16148 32.1779 1.0003 32.1874 0.896C32.2063 0.782222 32.2538 0.654222 32.3296 0.512C32.4623 0.256 32.8321 0.128 33.4389 0.128C34.1026 0.128 34.4961 0.303407 34.6194 0.654222C34.6668 0.815408 34.6905 1.06193 34.6905 1.39378V8.448Z" fill="url(#paint3_linear_726_108144)"/>
<path d="M43.9266 8.03556H48.307C48.5251 8.03556 48.6863 8.04504 48.7906 8.064C48.9044 8.07348 49.0324 8.11615 49.1746 8.192C49.4306 8.32474 49.5586 8.69452 49.5586 9.30133C49.5586 9.96504 49.3832 10.3538 49.0324 10.4676C48.8712 10.5244 48.6247 10.5529 48.2928 10.5529H42.6608C41.9971 10.5529 41.6084 10.3727 41.4946 10.0124C41.4377 9.86074 41.4093 9.61896 41.4093 9.28711V1.37956C41.4093 0.896 41.4993 0.568889 41.6795 0.398222C41.8596 0.218074 42.201 0.128 42.7035 0.128H48.307C48.5251 0.128 48.6863 0.137482 48.7906 0.156445C48.9044 0.165926 49.0324 0.208593 49.1746 0.284444C49.4306 0.417185 49.5586 0.786963 49.5586 1.39378C49.5586 2.05748 49.3832 2.44622 49.0324 2.56C48.8712 2.61689 48.6247 2.64533 48.2928 2.64533H43.9266V4.08178H46.7426C46.9607 4.08178 47.1219 4.09126 47.2262 4.11022C47.3399 4.1197 47.4679 4.16237 47.6102 4.23822C47.8662 4.37096 47.9942 4.74074 47.9942 5.34756C47.9942 6.01126 47.814 6.4 47.4537 6.51378C47.2925 6.57067 47.046 6.59911 46.7142 6.59911H43.9266V8.03556Z" fill="url(#paint4_linear_726_108144)"/>
<path d="M57.8814 7.82222L58.1374 7.63733C58.4597 7.4477 58.6873 7.35289 58.82 7.35289C59.114 7.35289 59.4316 7.61837 59.7729 8.14933C59.9815 8.48119 60.0858 8.74667 60.0858 8.94578C60.0858 9.14489 60.0195 9.31082 59.8867 9.44356C59.7635 9.5763 59.6165 9.69482 59.4458 9.79911C59.2752 9.90341 59.1092 10.003 58.948 10.0978C58.7963 10.1926 58.4787 10.3159 57.9952 10.4676C57.5116 10.6193 57.0423 10.6951 56.5872 10.6951C56.1415 10.6951 55.6864 10.6382 55.2218 10.5244C54.7667 10.4012 54.2926 10.2021 53.7996 9.92711C53.316 9.64267 52.8799 9.30133 52.4912 8.90311C52.1024 8.49541 51.78 7.97867 51.524 7.35289C51.2775 6.71763 51.1543 6.03022 51.1543 5.29067C51.1543 4.55111 51.2775 3.88267 51.524 3.28533C51.7706 2.67852 52.0835 2.18074 52.4627 1.792C52.8515 1.39378 53.2923 1.06193 53.7854 0.796444C54.7146 0.284445 55.6485 0.0284449 56.5872 0.0284449C57.0328 0.0284449 57.4832 0.099556 57.9383 0.241778C58.4029 0.374519 58.7537 0.512 58.9907 0.654222L59.332 0.853333C59.5027 0.95763 59.6355 1.04296 59.7303 1.10933C59.9768 1.30844 60.1001 1.536 60.1001 1.792C60.1001 2.03852 60.0005 2.29926 59.8014 2.57422C59.4316 3.08622 59.0998 3.34222 58.8058 3.34222C58.6352 3.34222 58.3934 3.23793 58.0805 3.02933C57.6823 2.70696 57.1513 2.54578 56.4876 2.54578C55.8713 2.54578 55.2645 2.75911 54.6672 3.18578C54.3827 3.39437 54.1457 3.6883 53.956 4.06756C53.7664 4.44682 53.6716 4.87822 53.6716 5.36178C53.6716 5.83585 53.7664 6.26252 53.956 6.64178C54.1457 7.02104 54.3875 7.3197 54.6814 7.53778C55.2598 7.95496 55.8618 8.16356 56.4876 8.16356C56.7815 8.16356 57.0565 8.12563 57.3125 8.04978C57.578 7.97393 57.7676 7.89807 57.8814 7.82222Z" fill="url(#paint5_linear_726_108144)"/>
<path d="M62.5919 0.113778H70.4995C70.8029 0.113778 71.0257 0.151704 71.1679 0.227556C71.3102 0.293926 71.405 0.402963 71.4524 0.554667C71.4998 0.706371 71.5235 0.905482 71.5235 1.152C71.5235 1.39852 71.4998 1.59763 71.4524 1.74933C71.405 1.89156 71.3244 1.99111 71.2106 2.048C71.0399 2.13333 70.7982 2.176 70.4853 2.176H67.7688V9.32978C67.7688 9.54785 67.7593 9.70904 67.7404 9.81333C67.7309 9.91763 67.6882 10.0409 67.6124 10.1831C67.546 10.3159 67.4228 10.4107 67.2426 10.4676C67.0625 10.5244 66.8254 10.5529 66.5315 10.5529C66.2376 10.5529 66.0005 10.5244 65.8204 10.4676C65.6497 10.4107 65.5265 10.3159 65.4506 10.1831C65.3842 10.0409 65.3416 9.91763 65.3226 9.81333C65.3131 9.69956 65.3084 9.53363 65.3084 9.31556V2.176H62.5777C62.2743 2.176 62.0515 2.14282 61.9093 2.07645C61.767 2.00059 61.6722 1.88682 61.6248 1.73511C61.5774 1.58341 61.5537 1.3843 61.5537 1.13778C61.5537 0.891259 61.5774 0.696889 61.6248 0.554667C61.6722 0.402963 61.7528 0.298667 61.8666 0.241778C62.0373 0.156445 62.279 0.113778 62.5919 0.113778Z" fill="url(#paint6_linear_726_108144)"/>
<path d="M73.2009 1.37956C73.2009 1.16148 73.2057 1.0003 73.2152 0.896C73.2341 0.782222 73.2815 0.654222 73.3574 0.512C73.4901 0.256 73.8599 0.128 74.4667 0.128C75.1304 0.128 75.5239 0.303407 75.6472 0.654222C75.6946 0.815408 75.7183 1.06193 75.7183 1.39378V9.30133C75.7183 9.52889 75.7088 9.69482 75.6898 9.79911C75.6803 9.90341 75.6377 10.0267 75.5618 10.1689C75.4291 10.4249 75.0593 10.5529 74.4525 10.5529C73.7888 10.5529 73.4 10.3727 73.2863 10.0124C73.2294 9.86074 73.2009 9.61896 73.2009 9.28711V1.37956Z" fill="url(#paint7_linear_726_108144)"/>
<path d="M84.555 0.512C84.6499 0.360296 84.7873 0.256 84.9675 0.199111C85.1476 0.142222 85.3705 0.113778 85.6359 0.113778C85.9109 0.113778 86.129 0.137482 86.2902 0.184889C86.4513 0.232296 86.5746 0.289185 86.6599 0.355556C86.7453 0.421926 86.8069 0.521482 86.8448 0.654222C86.9017 0.815408 86.9302 1.06193 86.9302 1.39378V5.68889C86.9302 6.94045 86.5414 8.07822 85.7639 9.10222C85.3847 9.58578 84.8964 9.97926 84.299 10.2827C83.7017 10.5766 83.038 10.7236 82.3079 10.7236C81.5873 10.7236 80.9284 10.5719 80.331 10.2684C79.7432 9.96504 79.2644 9.56682 78.8946 9.07378C78.1266 8.06874 77.7426 6.93096 77.7426 5.66045V1.37956C77.7426 1.152 77.7473 0.986074 77.7568 0.881778C77.7758 0.768 77.8232 0.64 77.899 0.497778C77.9749 0.355556 78.1029 0.256 78.2831 0.199111C78.4632 0.142222 78.705 0.113778 79.0084 0.113778C79.3118 0.113778 79.5536 0.142222 79.7337 0.199111C79.9139 0.256 80.0371 0.355556 80.1035 0.497778C80.2173 0.715852 80.2742 1.01452 80.2742 1.39378V5.66045C80.2742 6.23882 80.4164 6.78874 80.7008 7.31022C80.843 7.5757 81.0564 7.78904 81.3408 7.95022C81.6253 8.11141 81.9619 8.192 82.3506 8.192C83.0427 8.192 83.5595 7.936 83.9008 7.424C84.2422 6.912 84.4128 6.31941 84.4128 5.64622V1.29422C84.4128 0.924444 84.4602 0.663704 84.555 0.512Z" fill="url(#paint8_linear_726_108144)"/>
<path d="M100.03 0.526222C100.106 0.668444 100.149 0.796444 100.158 0.910222C100.177 1.024 100.186 1.18993 100.186 1.408V9.30133C100.186 9.95556 100.006 10.3396 99.646 10.4533C99.4659 10.5102 99.2383 10.5387 98.9634 10.5387C98.6884 10.5387 98.4703 10.515 98.3092 10.4676C98.148 10.4201 98.0247 10.3633 97.9394 10.2969C97.854 10.2305 97.7877 10.1357 97.7403 10.0124C97.6929 9.85126 97.6692 9.60474 97.6692 9.27289V4.50845C97.4321 4.80237 97.086 5.2717 96.6309 5.91645C96.1758 6.55171 95.8866 6.94993 95.7634 7.11111C95.6401 7.2723 95.5548 7.38608 95.5074 7.45245C95.46 7.50933 95.3415 7.59467 95.1518 7.70845C94.9717 7.81274 94.7726 7.86489 94.5545 7.86489C94.3459 7.86489 94.1515 7.81748 93.9714 7.72267C93.8007 7.61837 93.6775 7.51882 93.6016 7.424L93.4878 7.26756C93.2982 7.03052 92.9237 6.528 92.3643 5.76C91.8049 4.98252 91.5015 4.56533 91.454 4.50845V9.30133C91.454 9.51941 91.4446 9.68534 91.4256 9.79911C91.4161 9.90341 91.3735 10.0219 91.2976 10.1547C91.1554 10.4107 90.7856 10.5387 90.1883 10.5387C89.6099 10.5387 89.2496 10.4107 89.1074 10.1547C89.0315 10.0219 88.9841 9.89867 88.9652 9.78489C88.9557 9.67111 88.9509 9.50045 88.9509 9.27289V1.37956C88.9509 1.16148 88.9557 1.0003 88.9652 0.896C88.9841 0.782222 89.0315 0.654222 89.1074 0.512C89.2496 0.265481 89.6194 0.142222 90.2167 0.142222C90.4727 0.142222 90.6908 0.175407 90.8709 0.241778C91.0606 0.298667 91.1838 0.360296 91.2407 0.426667L91.326 0.512L94.5545 4.75022C96.1663 2.61689 97.2425 1.20889 97.7829 0.526222C97.9441 0.270222 98.3234 0.142222 98.9207 0.142222C99.5275 0.142222 99.8973 0.270222 100.03 0.526222Z" fill="url(#paint9_linear_726_108144)"/>
<defs>
<linearGradient id="paint0_linear_726_108144" x1="50.3334" y1="-3.66933" x2="50.3334" y2="14.9973" gradientUnits="userSpaceOnUse">
<stop stop-color="#01CAF9"/>
<stop offset="1" stop-color="#017ED2"/>
</linearGradient>
<linearGradient id="paint1_linear_726_108144" x1="50.3334" y1="-3.66933" x2="50.3334" y2="14.9973" gradientUnits="userSpaceOnUse">
<stop stop-color="#01CAF9"/>
<stop offset="1" stop-color="#017ED2"/>
</linearGradient>
<linearGradient id="paint2_linear_726_108144" x1="50.3334" y1="-3.66933" x2="50.3334" y2="14.9973" gradientUnits="userSpaceOnUse">
<stop stop-color="#01CAF9"/>
<stop offset="1" stop-color="#017ED2"/>
</linearGradient>
<linearGradient id="paint3_linear_726_108144" x1="50.3334" y1="-3.66933" x2="50.3334" y2="14.9973" gradientUnits="userSpaceOnUse">
<stop stop-color="#01CAF9"/>
<stop offset="1" stop-color="#017ED2"/>
</linearGradient>
<linearGradient id="paint4_linear_726_108144" x1="50.3334" y1="-3.66933" x2="50.3334" y2="14.9973" gradientUnits="userSpaceOnUse">
<stop stop-color="#01CAF9"/>
<stop offset="1" stop-color="#017ED2"/>
</linearGradient>
<linearGradient id="paint5_linear_726_108144" x1="50.3334" y1="-3.66933" x2="50.3334" y2="14.9973" gradientUnits="userSpaceOnUse">
<stop stop-color="#01CAF9"/>
<stop offset="1" stop-color="#017ED2"/>
</linearGradient>
<linearGradient id="paint6_linear_726_108144" x1="50.3334" y1="-3.66933" x2="50.3334" y2="14.9973" gradientUnits="userSpaceOnUse">
<stop stop-color="#01CAF9"/>
<stop offset="1" stop-color="#017ED2"/>
</linearGradient>
<linearGradient id="paint7_linear_726_108144" x1="50.3334" y1="-3.66933" x2="50.3334" y2="14.9973" gradientUnits="userSpaceOnUse">
<stop stop-color="#01CAF9"/>
<stop offset="1" stop-color="#017ED2"/>
</linearGradient>
<linearGradient id="paint8_linear_726_108144" x1="50.3334" y1="-3.66933" x2="50.3334" y2="14.9973" gradientUnits="userSpaceOnUse">
<stop stop-color="#01CAF9"/>
<stop offset="1" stop-color="#017ED2"/>
</linearGradient>
<linearGradient id="paint9_linear_726_108144" x1="50.3334" y1="-3.66933" x2="50.3334" y2="14.9973" gradientUnits="userSpaceOnUse">
<stop stop-color="#01CAF9"/>
<stop offset="1" stop-color="#017ED2"/>
</linearGradient>
</defs>
</svg>
