<svg width="36" height="36" viewBox="0 0 36 36" fill="none" xmlns="http://www.w3.org/2000/svg">
<path d="M10.8201 16.484C11.4965 20.0185 16.1205 23.9032 20.5081 21.6951C19.9571 21.9238 19.3464 22.0329 18.7029 21.9897C16.725 21.8579 15.1233 20.2492 14.9938 18.2698C14.8417 15.9382 16.6839 14 18.9784 14C19.9858 14 20.9069 14.3748 21.6081 14.9907C22.6792 15.932 24.1472 16.2719 25.4981 15.8208L25.6523 15.7693C28.4957 14.8197 29.2626 11.1575 27.0483 9.13282C25.0416 7.2976 22.4078 6.13797 19.5047 6.01233C11.6075 6.79091 10.0881 12.6632 10.8201 16.484Z" fill="url(#paint0_linear_664_92246)"/>
<path d="M7.00812 17.5324C6.74906 24.3728 12.2078 30 18.9763 30C22.0788 30 24.9058 28.8177 27.0318 26.8795C29.2564 24.8527 28.4484 21.1637 25.5946 20.2101C24.2315 19.7549 22.7059 20.0227 21.6347 20.9825C21.3037 21.2791 20.9213 21.5221 20.5039 21.6952C16.1163 23.9032 11.4923 20.0206 10.8159 16.484C10.0881 12.6632 11.6075 6.79094 19.5047 6.01236C19.3258 6.00412 19.1448 6 18.9639 6C12.5635 6.00618 7.25279 11.1246 7.00812 17.5324Z" fill="url(#paint1_linear_664_92246)"/>
<defs>
<linearGradient id="paint0_linear_664_92246" x1="15.3099" y1="21.7985" x2="22.5019" y2="6.40305" gradientUnits="userSpaceOnUse">
<stop stop-color="#0070BF"/>
<stop offset="0.3271" stop-color="#0093EE"/>
<stop offset="1" stop-color="#00E9FF"/>
</linearGradient>
<linearGradient id="paint1_linear_664_92246" x1="9.40553" y1="10.6372" x2="26.3599" y2="27.561" gradientUnits="userSpaceOnUse">
<stop stop-color="#00E9FF"/>
<stop offset="0.6729" stop-color="#0093EE"/>
<stop offset="1" stop-color="#0070BF"/>
</linearGradient>
</defs>
</svg>
